{
  "swagger": "2.0",
  "info": {
    "version": "1.0",
    "title": "Asyncio",
    "contact": {}
  },
  "host": "127.0.0.1:5000",
  "basePath": "/",
  "schemes": [
    "http"
  ],
  "consumes": [
    "application/json"
  ],
  "produces": [
    "application/json"
  ],
  "paths": {
    "/dosen": {
      "get": {
        "summary": "GET Dosen",
        "tags": [
          "dosen"
        ],
        "operationId": "GETDosen",
        "deprecated": false,
        "produces": [
          "application/json"
        ],
        "parameters": [
          {
            "name": "id",
            "in": "query",
            "required": true,
            "type": "integer",
            "format": "int32",
            "description": ""
          }
        ],
        "responses": {
          "200": {
            "description": "",
            "headers": {}
          }
        }
      },
      "post": {
        "summary": "POST Dosen",
        "tags": [
          "dosen"
        ],
        "operationId": "POSTDosen",
        "deprecated": false,
        "produces": [
          "application/json"
        ],
        "parameters": [
          {
            "name": "Body",
            "in": "body",
            "required": true,
            "description": "",
            "schema": {
              "$ref": "#/definitions/POSTDosenRequest"
            }
          }
        ],
        "responses": {
          "200": {
            "description": "",
            "headers": {}
          }
        }
      },
      "put": {
        "summary": "PUT Dosen",
        "tags": [
          "dosen"
        ],
        "operationId": "PUTDosen",
        "deprecated": false,
        "produces": [
          "application/json"
        ],
        "parameters": [
          {
            "name": "id",
            "in": "query",
            "required": true,
            "type": "integer",
            "format": "int32",
            "description": ""
          },
          {
            "name": "Body",
            "in": "body",
            "required": true,
            "description": "",
            "schema": {
              "$ref": "#/definitions/PUTDosenRequest"
            }
          }
        ],
        "responses": {
          "200": {
            "description": "",
            "headers": {}
          }
        }
      },
      "delete": {
        "summary": "DEL Dosen",
        "tags": [
          "dosen"
        ],
        "operationId": "DELDosen",
        "deprecated": false,
        "produces": [
          "application/json"
        ],
        "parameters": [
          {
            "name": "id",
            "in": "query",
            "required": true,
            "type": "integer",
            "format": "int32",
            "description": ""
          }
        ],
        "responses": {
          "200": {
            "description": "",
            "headers": {}
          }
        }
      }
    },
    "/dosen/list": {
      "get": {
        "summary": "GET List Dosen",
        "tags": [
          "dosen"
        ],
        "operationId": "GETListDosen",
        "deprecated": false,
        "produces": [
          "application/json"
        ],
        "parameters": [
          {
            "name": "page",
            "in": "query",
            "required": true,
            "type": "integer",
            "format": "int32",
            "description": ""
          },
          {
            "name": "per_page",
            "in": "query",
            "required": true,
            "type": "integer",
            "format": "int32",
            "description": ""
          }
        ],
        "responses": {
          "200": {
            "description": "",
            "headers": {}
          }
        }
      }
    },
    "/dosen/riwayat": {
      "get": {
        "summary": "GET Riwayat Pendidikan",
        "tags": [
          "riwayat_pendidikan"
        ],
        "operationId": "GETRiwayatPendidikan",
        "deprecated": false,
        "produces": [
          "application/json"
        ],
        "parameters": [
          {
            "name": "id",
            "in": "query",
            "required": true,
            "type": "integer",
            "format": "int32",
            "description": ""
          }
        ],
        "responses": {
          "200": {
            "description": "",
            "headers": {}
          }
        }
      },
      "post": {
        "summary": "POST Riwayat Pendidikan",
        "tags": [
          "riwayat_pendidikan"
        ],
        "operationId": "POSTRiwayatPendidikan",
        "deprecated": false,
        "produces": [
          "application/json"
        ],
        "parameters": [
          {
            "name": "dosen_id",
            "in": "query",
            "required": true,
            "type": "integer",
            "format": "int32",
            "description": ""
          },
          {
            "name": "Body",
            "in": "body",
            "required": true,
            "description": "",
            "schema": {
              "$ref": "#/definitions/POSTRiwayatPendidikanRequest"
            }
          }
        ],
        "responses": {
          "200": {
            "description": "",
            "headers": {}
          }
        }
      },
      "put": {
        "summary": "PUT Riwayat Pendidikan",
        "tags": [
          "riwayat_pendidikan"
        ],
        "operationId": "PUTRiwayatPendidikan",
        "deprecated": false,
        "produces": [
          "application/json"
        ],
        "parameters": [
          {
            "name": "id",
            "in": "query",
            "required": true,
            "type": "integer",
            "format": "int32",
            "description": ""
          },
          {
            "name": "Body",
            "in": "body",
            "required": true,
            "description": "",
            "schema": {
              "$ref": "#/definitions/PUTRiwayatPendidikanRequest"
            }
          }
        ],
        "responses": {
          "200": {
            "description": "",
            "headers": {}
          }
        }
      },
      "delete": {
        "summary": "DEL Riwayat Pendidikan",
        "tags": [
          "riwayat_pendidikan"
        ],
        "operationId": "DELRiwayatPendidikan",
        "deprecated": false,
        "produces": [
          "application/json"
        ],
        "parameters": [
          {
            "name": "id",
            "in": "query",
            "required": true,
            "type": "integer",
            "format": "int32",
            "description": ""
          }
        ],
        "responses": {
          "200": {
            "description": "",
            "headers": {}
          }
        }
      }
    },
    "/dosen/riwayat/list": {
      "get": {
        "summary": "GET List Riwayat Pendidikan",
        "tags": [
          "riwayat_pendidikan"
        ],
        "operationId": "GETListRiwayatPendidikan",
        "deprecated": false,
        "produces": [
          "application/json"
        ],
        "parameters": [
          {
            "name": "page",
            "in": "query",
            "required": true,
            "type": "integer",
            "format": "int32",
            "description": ""
          },
          {
            "name": "per_page",
            "in": "query",
            "required": true,
            "type": "integer",
            "format": "int32",
            "description": ""
          }
        ],
        "responses": {
          "200": {
            "description": "",
            "headers": {}
          }
        }
      }
    },
    "/mahasiswa": {
      "get": {
        "summary": "GET Mahasiswa",
        "tags": [
          "mahasiswa"
        ],
        "operationId": "GETMahasiswa",
        "deprecated": false,
        "produces": [
          "application/json"
        ],
        "parameters": [
          {
            "name": "id",
            "in": "query",
            "required": true,
            "type": "integer",
            "format": "int32",
            "description": ""
          }
        ],
        "responses": {
          "200": {
            "description": "",
            "headers": {}
          }
        }
      },
      "post": {
        "summary": "POST Mahasiswa",
        "tags": [
          "mahasiswa"
        ],
        "operationId": "POSTMahasiswa",
        "deprecated": false,
        "produces": [
          "application/json"
        ],
        "parameters": [
          {
            "name": "Body",
            "in": "body",
            "required": true,
            "description": "",
            "schema": {
              "$ref": "#/definitions/POSTMahasiswaRequest"
            }
          }
        ],
        "responses": {
          "200": {
            "description": "",
            "headers": {}
          }
        }
      },
      "put": {
        "summary": "PUT Mahasiswa",
        "tags": [
          "mahasiswa"
        ],
        "operationId": "PUTMahasiswa",
        "deprecated": false,
        "produces": [
          "application/json"
        ],
        "parameters": [
          {
            "name": "id",
            "in": "query",
            "required": true,
            "type": "integer",
            "format": "int32",
            "description": ""
          },
          {
            "name": "Body",
            "in": "body",
            "required": true,
            "description": "",
            "schema": {
              "$ref": "#/definitions/PUTMahasiswaRequest"
            }
          }
        ],
        "responses": {
          "200": {
            "description": "",
            "headers": {}
          }
        }
      },
      "delete": {
        "summary": "DEL Mahasiswa",
        "tags": [
          "mahasiswa"
        ],
        "operationId": "DELMahasiswa",
        "deprecated": false,
        "produces": [
          "application/json"
        ],
        "parameters": [
          {
            "name": "id",
            "in": "query",
            "required": true,
            "type": "integer",
            "format": "int32",
            "description": ""
          }
        ],
        "responses": {
          "200": {
            "description": "",
            "headers": {}
          }
        }
      }
    },
    "/mahasiswa/list": {
      "get": {
        "summary": "GET List Mahasiswa",
        "tags": [
          "mahasiswa"
        ],
        "operationId": "GETListMahasiswa",
        "deprecated": false,
        "produces": [
          "application/json"
        ],
        "parameters": [
          {
            "name": "page",
            "in": "query",
            "required": true,
            "type": "integer",
            "format": "int32",
            "description": ""
          },
          {
            "name": "per_page",
            "in": "query",
            "required": true,
            "type": "integer",
            "format": "int32",
            "description": ""
          }
        ],
        "responses": {
          "200": {
            "description": "",
            "headers": {}
          }
        }
      }
    },
    "/perkuliahan/mata_kuliah": {
      "get": {
        "summary": "GET Mata Kuliah",
        "tags": [
          "mata_kuliah"
        ],
        "operationId": "GETMataKuliah",
        "deprecated": false,
        "produces": [
          "application/json"
        ],
        "parameters": [
          {
            "name": "id",
            "in": "query",
            "required": true,
            "type": "integer",
            "format": "int32",
            "description": ""
          }
        ],
        "responses": {
          "200": {
            "description": "",
            "headers": {}
          }
        }
      },
      "post": {
        "summary": "POST Mata Kuliah",
        "tags": [
          "mata_kuliah"
        ],
        "operationId": "POSTMataKuliah",
        "deprecated": false,
        "produces": [
          "application/json"
        ],
        "parameters": [
          {
            "name": "Body",
            "in": "body",
            "required": true,
            "description": "",
            "schema": {
              "$ref": "#/definitions/POSTMataKuliahRequest"
            }
          }
        ],
        "responses": {
          "200": {
            "description": "",
            "headers": {}
          }
        }
      },
      "put": {
        "summary": "PUT Mata Kuliah",
        "tags": [
          "mata_kuliah"
        ],
        "operationId": "PUTMataKuliah",
        "deprecated": false,
        "produces": [
          "application/json"
        ],
        "parameters": [
          {
            "name": "id",
            "in": "query",
            "required": true,
            "type": "integer",
            "format": "int32",
            "description": ""
          },
          {
            "name": "Body",
            "in": "body",
            "required": true,
            "description": "",
            "schema": {
              "$ref": "#/definitions/PUTMataKuliahRequest"
            }
          }
        ],
        "responses": {
          "200": {
            "description": "",
            "headers": {}
          }
        }
      },
      "delete": {
        "summary": "DEL Mata Kuliah",
        "tags": [
          "mata_kuliah"
        ],
        "operationId": "DELMataKuliah",
        "deprecated": false,
        "produces": [
          "application/json"
        ],
        "parameters": [
          {
            "name": "id",
            "in": "query",
            "required": true,
            "type": "integer",
            "format": "int32",
            "description": ""
          }
        ],
        "responses": {
          "200": {
            "description": "",
            "headers": {}
          }
        }
      }
    },
    "/perkuliahan/mata_kuliah/list": {
      "get": {
        "summary": "GET List Mata Kuliah",
        "tags": [
          "mata_kuliah"
        ],
        "operationId": "GETListMataKuliah",
        "deprecated": false,
        "produces": [
          "application/json"
        ],
        "parameters": [
          {
            "name": "page",
            "in": "query",
            "required": true,
            "type": "integer",
            "format": "int32",
            "description": ""
          },
          {
            "name": "per_page",
            "in": "query",
            "required": true,
            "type": "integer",
            "format": "int32",
            "description": ""
          }
        ],
        "responses": {
          "200": {
            "description": "",
            "headers": {}
          }
        }
      }
    },
    "/perkuliahan/mata_kuliah/dosen": {
      "get": {
        "summary": "GET Dosen Mata Kuliah",
        "tags": [
          "dosen_mata_kuliah"
        ],
        "operationId": "GETDosenMataKuliah",
        "deprecated": false,
        "produces": [
          "application/json"
        ],
        "parameters": [
          {
            "name": "id",
            "in": "query",
            "required": true,
            "type": "integer",
            "format": "int32",
            "description": ""
          }
        ],
        "responses": {
          "200": {
            "description": "",
            "headers": {}
          }
        }
      },
      "post": {
        "summary": "POST Dosen Mata Kuliah",
        "tags": [
          "dosen_mata_kuliah"
        ],
        "operationId": "POSTDosenMataKuliah",
        "deprecated": false,
        "produces": [
          "application/json"
        ],
        "parameters": [
          {
            "name": "Body",
            "in": "body",
            "required": true,
            "description": "",
            "schema": {
              "$ref": "#/definitions/POSTDosenMataKuliahRequest"
            }
          }
        ],
        "responses": {
          "200": {
            "description": "",
            "headers": {}
          }
        }
      },
      "put": {
        "summary": "PUT Dosen Mata Kuliah",
        "tags": [
          "dosen_mata_kuliah"
        ],
        "operationId": "PUTDosenMataKuliah",
        "deprecated": false,
        "produces": [
          "application/json"
        ],
        "parameters": [
          {
            "name": "id",
            "in": "query",
            "required": true,
            "type": "integer",
            "format": "int32",
            "description": ""
          },
          {
            "name": "Body",
            "in": "body",
            "required": true,
            "description": "",
            "schema": {
              "$ref": "#/definitions/PUTDosenMataKuliahRequest"
            }
          }
        ],
        "responses": {
          "200": {
            "description": "",
            "headers": {}
          }
        }
      },
      "delete": {
        "summary": "DEL Dosen Mata Kuliah",
        "tags": [
          "dosen_mata_kuliah"
        ],
        "operationId": "DELDosenMataKuliah",
        "deprecated": false,
        "produces": [
          "application/json"
        ],
        "parameters": [
          {
            "name": "id",
            "in": "query",
            "required": true,
            "type": "integer",
            "format": "int32",
            "description": ""
          }
        ],
        "responses": {
          "200": {
            "description": "",
            "headers": {}
          }
        }
      }
    },
    "/perkuliahan/mata_kuliah/dosen/list": {
      "get": {
        "summary": "GET List Dosen Mata Kuliah",
        "tags": [
          "dosen_mata_kuliah"
        ],
        "operationId": "GETListDosenMataKuliah",
        "deprecated": false,
        "produces": [
          "application/json"
        ],
        "parameters": [
          {
            "name": "page",
            "in": "query",
            "required": true,
            "type": "integer",
            "format": "int32",
            "description": ""
          },
          {
            "name": "per_page",
            "in": "query",
            "required": true,
            "type": "integer",
            "format": "int32",
            "description": ""
          }
        ],
        "responses": {
          "200": {
            "description": "",
            "headers": {}
          }
        }
      }
    },
    "/perkuliahan/kelas": {
      "get": {
        "summary": "GET Kelas",
        "tags": [
          "kelas"
        ],
        "operationId": "GETKelas",
        "deprecated": false,
        "produces": [
          "application/json"
        ],
        "parameters": [
          {
            "name": "id",
            "in": "query",
            "required": true,
            "type": "integer",
            "format": "int32",
            "description": ""
          }
        ],
        "responses": {
          "200": {
            "description": "",
            "headers": {}
          }
        }
      },
      "post": {
        "summary": "POST Kelas",
        "tags": [
          "kelas"
        ],
        "operationId": "POSTKelas",
        "deprecated": false,
        "produces": [
          "application/json"
        ],
        "parameters": [
          {
            "name": "Body",
            "in": "body",
            "required": true,
            "description": "",
            "schema": {
              "$ref": "#/definitions/POSTKelasRequest"
            }
          }
        ],
        "responses": {
          "200": {
            "description": "",
            "headers": {}
          }
        }
      },
      "put": {
        "summary": "PUT Kelas",
        "tags": [
          "kelas"
        ],
        "operationId": "PUTKelas",
        "deprecated": false,
        "produces": [
          "application/json"
        ],
        "parameters": [
          {
            "name": "id",
            "in": "query",
            "required": true,
            "type": "integer",
            "format": "int32",
            "description": ""
          },
          {
            "name": "Body",
            "in": "body",
            "required": true,
            "description": "",
            "schema": {
              "$ref": "#/definitions/PUTKelasRequest"
            }
          }
        ],
        "responses": {
          "200": {
            "description": "",
            "headers": {}
          }
        }
      },
      "delete": {
        "summary": "DEL Kelas",
        "tags": [
          "kelas"
        ],
        "operationId": "DELKelas",
        "deprecated": false,
        "produces": [
          "application/json"
        ],
        "parameters": [
          {
            "name": "id",
            "in": "query",
            "required": true,
            "type": "integer",
            "format": "int32",
            "description": ""
          }
        ],
        "responses": {
          "200": {
            "description": "",
            "headers": {}
          }
        }
      }
    },
    "/perkuliahan/kelas/list": {
      "get": {
        "summary": "GET List Kelas",
        "tags": [
          "kelas"
        ],
        "operationId": "GETListKelas",
        "deprecated": false,
        "produces": [
          "application/json"
        ],
        "parameters": [
          {
            "name": "page",
            "in": "query",
            "required": true,
            "type": "integer",
            "format": "int32",
            "description": ""
          },
          {
            "name": "per_page",
            "in": "query",
            "required": true,
            "type": "integer",
            "format": "int32",
            "description": ""
          }
        ],
        "responses": {
          "200": {
            "description": "",
            "headers": {}
          }
        }
      }
    }
  },
  "definitions": {
    "POSTDosenRequest": {
      "title": "POSTDosenRequest",
      "example": {
        "nama": "Javan Cipta",
        "nip": 1234567,
        "gelar": "S.Kom."
      },
      "type": "object",
      "properties": {
        "nama": {
          "type": "string"
        },
        "nip": {
          "type": "integer",
          "format": "int32"
        },
        "gelar": {
          "type": "string"
        }
      },
      "required": [
        "nama",
        "nip",
        "gelar"
      ]
    },
    "PUTDosenRequest": {
      "title": "PUTDosenRequest",
      "example": {
        "nama": "Javan Cipta 2",
        "nip": 123456,
        "gelar": "S.Kom."
      },
      "type": "object",
      "properties": {
        "nama": {
          "type": "string"
        },
        "nip": {
          "type": "integer",
          "format": "int32"
        },
        "gelar": {
          "type": "string"
        }
      },
      "required": [
        "nama",
        "nip",
        "gelar"
      ]
    },
    "POSTRiwayatPendidikanRequest": {
      "title": "POSTRiwayatPendidikanRequest",
      "example": {
        "strata": "S3",
        "jurusan": "Informatika",
        "sekolah": "UB",
        "tahun_mulai": 2013,
        "tahun_selesai": 2017
      },
      "type": "object",
      "properties": {
        "strata": {
          "type": "string"
        },
        "jurusan": {
          "type": "string"
        },
        "sekolah": {
          "type": "string"
        },
        "tahun_mulai": {
          "type": "integer",
          "format": "int32"
        },
        "tahun_selesai": {
          "type": "integer",
          "format": "int32"
        }
      },
      "required": [
        "strata",
        "jurusan",
        "sekolah",
        "tahun_mulai",
        "tahun_selesai"
      ]
    },
    "PUTRiwayatPendidikanRequest": {
      "title": "PUTRiwayatPendidikanRequest",
      "example": {
        "dosen_id": 1,
        "strata": "S1",
        "jurusan": "Informatika",
        "sekolah": "UB",
        "tahun_mulai": 2013,
        "tahun_selesai": 2017
      },
      "type": "object",
      "properties": {
        "dosen_id": {
          "type": "integer",
          "format": "int32"
        },
        "strata": {
          "type": "string"
        },
        "jurusan": {
          "type": "string"
        },
        "sekolah": {
          "type": "string"
        },
        "tahun_mulai": {
          "type": "integer",
          "format": "int32"
        },
        "tahun_selesai": {
          "type": "integer",
          "format": "int32"
        }
      },
      "required": [
        "dosen_id",
        "strata",
        "jurusan",
        "sekolah",
        "tahun_mulai",
        "tahun_selesai"
      ]
    },
    "POSTMahasiswaRequest": {
      "title": "POSTMahasiswaRequest",
      "example": {
        "nama": "Javan Student",
        "nim": 1234569,
        "jenis_kelamin": "l",
        "tempat": "Malang",
        "tanggal_lahir": "1995-07-22 09:51:08"
      },
      "type": "object",
      "properties": {
        "nama": {
          "type": "string"
        },
        "nim": {
          "type": "integer",
          "format": "int32"
        },
        "jenis_kelamin": {
          "type": "string"
        },
        "tempat": {
          "type": "string"
        },
        "tanggal_lahir": {
          "type": "string"
        }
      },
      "required": [
        "nama",
        "nim",
        "jenis_kelamin",
        "tempat",
        "tanggal_lahir"
      ]
    },
    "PUTMahasiswaRequest": {
      "title": "PUTMahasiswaRequest",
      "example": {
        "nama": "Javan Student 2",
        "nim": 123456,
        "jenis_kelamin": "l",
        "tempat": "Malang",
        "tanggal_lahir": "1995-07-22 09:51:08"
      },
      "type": "object",
      "properties": {
        "nama": {
          "type": "string"
        },
        "nim": {
          "type": "integer",
          "format": "int32"
        },
        "jenis_kelamin": {
          "type": "string"
        },
        "tempat": {
          "type": "string"
        },
        "tanggal_lahir": {
          "type": "string"
        }
      },
      "required": [
        "nama",
        "nim",
        "jenis_kelamin",
        "tempat",
        "tanggal_lahir"
      ]
    },
    "POSTMataKuliahRequest": {
      "title": "POSTMataKuliahRequest",
      "example": {
        "mata_kuliah": "Algoritma",
        "sks": 3
      },
      "type": "object",
      "properties": {
        "mata_kuliah": {
          "type": "string"
        },
        "sks": {
          "type": "integer",
          "format": "int32"
        }
      },
      "required": [
        "mata_kuliah",
        "sks"
      ]
    },
    "PUTMataKuliahRequest": {
      "title": "PUTMataKuliahRequest",
      "example": {
        "mata_kuliah": "Algoritma  123",
        "sks": 3
      },
      "type": "object",
      "properties": {
        "mata_kuliah": {
          "type": "string"
        },
        "sks": {
          "type": "integer",
          "format": "int32"
        }
      },
      "required": [
        "mata_kuliah",
        "sks"
      ]
    },
    "POSTDosenMataKuliahRequest": {
      "title": "POSTDosenMataKuliahRequest",
      "example": {
        "dosen_id": 1,
        "mata_kuliah_id": 1
      },
      "type": "object",
      "properties": {
        "dosen_id": {
          "type": "integer",
          "format": "int32"
        },
        "mata_kuliah_id": {
          "type": "integer",
          "format": "int32"
        }
      },
      "required": [
        "dosen_id",
        "mata_kuliah_id"
      ]
    },
    "PUTDosenMataKuliahRequest": {
      "title": "PUTDosenMataKuliahRequest",
      "example": {
        "dosen_id": 1,
        "mata_kuliah_id": 1
      },
      "type": "object",
      "properties": {
        "dosen_id": {
          "type": "integer",
          "format": "int32"
        },
        "mata_kuliah_id": {
          "type": "integer",
          "format": "int32"
        }
      },
      "required": [
        "dosen_id",
        "mata_kuliah_id"
      ]
    },
    "POSTKelasRequest": {
      "title": "POSTKelasRequest",
      "example": {
        "mahasiswa_id": 1,
        "mata_kuliah_id": 1,
        "nama_kelas": "4A"
      },
      "type": "object",
      "properties": {
        "mahasiswa_id": {
          "type": "integer",
          "format": "int32"
        },
        "mata_kuliah_id": {
          "type": "integer",
          "format": "int32"
        },
        "nama_kelas": {
          "type": "string"
        }
      },
      "required": [
        "mahasiswa_id",
        "mata_kuliah_id",
        "nama_kelas"
      ]
    },
    "PUTKelasRequest": {
      "title": "PUTKelasRequest",
      "example": {
        "mahasiswa_id": 1,
        "mata_kuliah_id": 1,
        "nama_kelas": "4B"
      },
      "type": "object",
      "properties": {
        "mahasiswa_id": {
          "type": "integer",
          "format": "int32"
        },
        "mata_kuliah_id": {
          "type": "integer",
          "format": "int32"
        },
        "nama_kelas": {
          "type": "string"
        }
      },
      "required": [
        "mahasiswa_id",
        "mata_kuliah_id",
        "nama_kelas"
      ]
    }
  },
  "tags": [
    {
      "name": "dosen"
    },
    {
      "name": "riwayat_pendidikan"
    },
    {
      "name": "mahasiswa"
    },
    {
      "name": "mata_kuliah"
    },
    {
      "name": "dosen_mata_kuliah"
    },
    {
      "name": "kelas"
    }
  ]
}